{
  "items": [
    {
      "external_urls": {
        "spotify": "https://open.spotify.com/artist/699OTQXzgjhIYAHMy9RyPD"
      },
      "followers": {
        "href": null,
        "total": 6034731
      },
      "genres": ["atl hip hop", "plugg", "pluggnb", "rap", "trap"],
      "href": "https://api.spotify.com/v1/artists/699OTQXzgjhIYAHMy9RyPD",
      "id": "699OTQXzgjhIYAHMy9RyPD",
      "images": [
        {
          "height": 640,
          "url": "https://i.scdn.co/image/ab6761610000e5eb504ff11d788162fbf8078654",
          "width": 640
        },
        {
          "height": 320,
          "url": "https://i.scdn.co/image/ab67616100005174504ff11d788162fbf8078654",
          "width": 320
        },
        {
          "height": 160,
          "url": "https://i.scdn.co/image/ab6761610000f178504ff11d788162fbf8078654",
          "width": 160
        }
      ],
      "name": "Playboi Carti",
      "popularity": 89,
      "type": "artist",
      "uri": "spotify:artist:699OTQXzgjhIYAHMy9RyPD"
    },
    {
      "external_urls": {
        "spotify": "https://open.spotify.com/artist/3Sz7ZnJQBIHsXLUSo0OQtM"
      },
      "followers": {
        "href": null,
        "total": 2416623
      },
      "genres": ["edmonton indie", "lo-fi indie"],
      "href": "https://api.spotify.com/v1/artists/3Sz7ZnJQBIHsXLUSo0OQtM",
      "id": "3Sz7ZnJQBIHsXLUSo0OQtM",
      "images": [
        {
          "height": 640,
          "url": "https://i.scdn.co/image/ab6761610000e5ebc7a7b191db13668f1a6d863d",
          "width": 640
        },
        {
          "height": 320,
          "url": "https://i.scdn.co/image/ab67616100005174c7a7b191db13668f1a6d863d",
          "width": 320
        },
        {
          "height": 160,
          "url": "https://i.scdn.co/image/ab6761610000f178c7a7b191db13668f1a6d863d",
          "width": 160
        }
      ],
      "name": "Mac DeMarco",
      "popularity": 82,
      "type": "artist",
      "uri": "spotify:artist:3Sz7ZnJQBIHsXLUSo0OQtM"
    },
    {
      "external_urls": {
        "spotify": "https://open.spotify.com/artist/2ApaG60P4r0yhBoDCGD8YG"
      },
      "followers": {
        "href": null,
        "total": 735796
      },
      "genres": [
        "alternative rock",
        "indie pop",
        "indie rock",
        "melancholia",
        "singer-songwriter"
      ],
      "href": "https://api.spotify.com/v1/artists/2ApaG60P4r0yhBoDCGD8YG",
      "id": "2ApaG60P4r0yhBoDCGD8YG",
      "images": [
        {
          "height": 640,
          "url": "https://i.scdn.co/image/ab6761610000e5eb079739b801ab3f105866b76f",
          "width": 640
        },
        {
          "height": 320,
          "url": "https://i.scdn.co/image/ab67616100005174079739b801ab3f105866b76f",
          "width": 320
        },
        {
          "height": 160,
          "url": "https://i.scdn.co/image/ab6761610000f178079739b801ab3f105866b76f",
          "width": 160
        }
      ],
      "name": "Elliott Smith",
      "popularity": 67,
      "type": "artist",
      "uri": "spotify:artist:2ApaG60P4r0yhBoDCGD8YG"
    },
    {
      "external_urls": {
        "spotify": "https://open.spotify.com/artist/1WZarnZpWEv7dDtjAETt4X"
      },
      "followers": {
        "href": null,
        "total": 92906
      },
      "genres": ["ambient pop", "art pop", "escape room", "hyperpop"],
      "href": "https://api.spotify.com/v1/artists/1WZarnZpWEv7dDtjAETt4X",
      "id": "1WZarnZpWEv7dDtjAETt4X",
      "images": [
        {
          "height": 640,
          "url": "https://i.scdn.co/image/ab6761610000e5ebf3582b14cc6b4f608f9a560f",
          "width": 640
        },
        {
          "height": 320,
          "url": "https://i.scdn.co/image/ab67616100005174f3582b14cc6b4f608f9a560f",
          "width": 320
        },
        {
          "height": 160,
          "url": "https://i.scdn.co/image/ab6761610000f178f3582b14cc6b4f608f9a560f",
          "width": 160
        }
      ],
      "name": "yeule",
      "popularity": 56,
      "type": "artist",
      "uri": "spotify:artist:1WZarnZpWEv7dDtjAETt4X"
    },
    {
      "external_urls": {
        "spotify": "https://open.spotify.com/artist/2h93pZq0e7k5yf4dywlkpM"
      },
      "followers": {
        "href": null,
        "total": 8923706
      },
      "genres": [
        "alternative r&b",
        "hip hop",
        "lgbtq+ hip hop",
        "neo soul",
        "pop"
      ],
      "href": "https://api.spotify.com/v1/artists/2h93pZq0e7k5yf4dywlkpM",
      "id": "2h93pZq0e7k5yf4dywlkpM",
      "images": [
        {
          "height": 640,
          "url": "https://i.scdn.co/image/ab6761610000e5ebfbc3faec4a370d8393bee7f1",
          "width": 640
        },
        {
          "height": 320,
          "url": "https://i.scdn.co/image/ab67616100005174fbc3faec4a370d8393bee7f1",
          "width": 320
        },
        {
          "height": 160,
          "url": "https://i.scdn.co/image/ab6761610000f178fbc3faec4a370d8393bee7f1",
          "width": 160
        }
      ],
      "name": "Frank Ocean",
      "popularity": 87,
      "type": "artist",
      "uri": "spotify:artist:2h93pZq0e7k5yf4dywlkpM"
    },
    {
      "external_urls": {
        "spotify": "https://open.spotify.com/artist/4MXUO7sVCaFgFjoTI5ox5c"
      },
      "followers": {
        "href": null,
        "total": 1476898
      },
      "genres": [
        "baroque pop",
        "chamber pop",
        "freak folk",
        "indie folk",
        "singer-songwriter"
      ],
      "href": "https://api.spotify.com/v1/artists/4MXUO7sVCaFgFjoTI5ox5c",
      "id": "4MXUO7sVCaFgFjoTI5ox5c",
      "images": [
        {
          "height": 640,
          "url": "https://i.scdn.co/image/ab6761610000e5eb6bb28451de514ef1f3c5bf30",
          "width": 640
        },
        {
          "height": 320,
          "url": "https://i.scdn.co/image/ab676161000051746bb28451de514ef1f3c5bf30",
          "width": 320
        },
        {
          "height": 160,
          "url": "https://i.scdn.co/image/ab6761610000f1786bb28451de514ef1f3c5bf30",
          "width": 160
        }
      ],
      "name": "Sufjan Stevens",
      "popularity": 75,
      "type": "artist",
      "uri": "spotify:artist:4MXUO7sVCaFgFjoTI5ox5c"
    },
    {
      "external_urls": {
        "spotify": "https://open.spotify.com/artist/2xvtxDNInKDV4AvGmjw6d1"
      },
      "followers": {
        "href": null,
        "total": 259103
      },
      "genres": ["glitchcore", "underground hip hop"],
      "href": "https://api.spotify.com/v1/artists/2xvtxDNInKDV4AvGmjw6d1",
      "id": "2xvtxDNInKDV4AvGmjw6d1",
      "images": [
        {
          "height": 640,
          "url": "https://i.scdn.co/image/ab6761610000e5ebd8a32f7731e293fd4ec6914b",
          "width": 640
        },
        {
          "height": 320,
          "url": "https://i.scdn.co/image/ab67616100005174d8a32f7731e293fd4ec6914b",
          "width": 320
        },
        {
          "height": 160,
          "url": "https://i.scdn.co/image/ab6761610000f178d8a32f7731e293fd4ec6914b",
          "width": 160
        }
      ],
      "name": "Bladee",
      "popularity": 71,
      "type": "artist",
      "uri": "spotify:artist:2xvtxDNInKDV4AvGmjw6d1"
    },
    {
      "external_urls": {
        "spotify": "https://open.spotify.com/artist/6hG0VsXXlD10l60TqiIHIX"
      },
      "followers": {
        "href": null,
        "total": 128324
      },
      "genres": [
        "escape room",
        "glitchcore",
        "hyperpop",
        "underground hip hop"
      ],
      "href": "https://api.spotify.com/v1/artists/6hG0VsXXlD10l60TqiIHIX",
      "id": "6hG0VsXXlD10l60TqiIHIX",
      "images": [
        {
          "height": 640,
          "url": "https://i.scdn.co/image/ab6761610000e5eba4caf4073b40cef9206c8012",
          "width": 640
        },
        {
          "height": 320,
          "url": "https://i.scdn.co/image/ab67616100005174a4caf4073b40cef9206c8012",
          "width": 320
        },
        {
          "height": 160,
          "url": "https://i.scdn.co/image/ab6761610000f178a4caf4073b40cef9206c8012",
          "width": 160
        }
      ],
      "name": "Ecco2k",
      "popularity": 64,
      "type": "artist",
      "uri": "spotify:artist:6hG0VsXXlD10l60TqiIHIX"
    },
    {
      "external_urls": {
        "spotify": "https://open.spotify.com/artist/25uiPmTg16RbhZWAqwLBy5"
      },
      "followers": {
        "href": null,
        "total": 2544986
      },
      "genres": [
        "art pop",
        "candy pop",
        "dance pop",
        "electropop",
        "metropopolis",
        "pop",
        "post-teen pop",
        "uk pop"
      ],
      "href": "https://api.spotify.com/v1/artists/25uiPmTg16RbhZWAqwLBy5",
      "id": "25uiPmTg16RbhZWAqwLBy5",
      "images": [
        {
          "height": 640,
          "url": "https://i.scdn.co/image/ab6761610000e5eb576cb43281160e345f728b71",
          "width": 640
        },
        {
          "height": 320,
          "url": "https://i.scdn.co/image/ab67616100005174576cb43281160e345f728b71",
          "width": 320
        },
        {
          "height": 160,
          "url": "https://i.scdn.co/image/ab6761610000f178576cb43281160e345f728b71",
          "width": 160
        }
      ],
      "name": "Charli XCX",
      "popularity": 81,
      "type": "artist",
      "uri": "spotify:artist:25uiPmTg16RbhZWAqwLBy5"
    },
    {
      "external_urls": {
        "spotify": "https://open.spotify.com/artist/0epOFNiUfyON9EYx7Tpr6V"
      },
      "followers": {
        "href": null,
        "total": 4176639
      },
      "genres": [
        "alternative rock",
        "garage rock",
        "modern rock",
        "permanent wave",
        "rock"
      ],
      "href": "https://api.spotify.com/v1/artists/0epOFNiUfyON9EYx7Tpr6V",
      "id": "0epOFNiUfyON9EYx7Tpr6V",
      "images": [
        {
          "height": 640,
          "url": "https://i.scdn.co/image/ab6761610000e5eb64d74f5985cb66b2f7b60e93",
          "width": 640
        },
        {
          "height": 320,
          "url": "https://i.scdn.co/image/ab6761610000517464d74f5985cb66b2f7b60e93",
          "width": 320
        },
        {
          "height": 160,
          "url": "https://i.scdn.co/image/ab6761610000f17864d74f5985cb66b2f7b60e93",
          "width": 160
        }
      ],
      "name": "The Strokes",
      "popularity": 79,
      "type": "artist",
      "uri": "spotify:artist:0epOFNiUfyON9EYx7Tpr6V"
    },
    {
      "external_urls": {
        "spotify": "https://open.spotify.com/artist/3pc0bOVB5whxmD50W79wwO"
      },
      "followers": {
        "href": null,
        "total": 1432860
      },
      "genres": ["chill r&b", "pop"],
      "href": "https://api.spotify.com/v1/artists/3pc0bOVB5whxmD50W79wwO",
      "id": "3pc0bOVB5whxmD50W79wwO",
      "images": [
        {
          "height": 640,
          "url": "https://i.scdn.co/image/ab6761610000e5ebd969cf117d0b0d4424bebdc5",
          "width": 640
        },
        {
          "height": 320,
          "url": "https://i.scdn.co/image/ab67616100005174d969cf117d0b0d4424bebdc5",
          "width": 320
        },
        {
          "height": 160,
          "url": "https://i.scdn.co/image/ab6761610000f178d969cf117d0b0d4424bebdc5",
          "width": 160
        }
      ],
      "name": "keshi",
      "popularity": 78,
      "type": "artist",
      "uri": "spotify:artist:3pc0bOVB5whxmD50W79wwO"
    },
    {
      "external_urls": {
        "spotify": "https://open.spotify.com/artist/7K3zpFXBvPcvzhj7zlGJdO"
      },
      "followers": {
        "href": null,
        "total": 1133200
      },
      "genres": [
        "alternative dance",
        "bitpop",
        "digital hardcore",
        "indietronica",
        "neo-synthpop",
        "new rave",
        "nintendocore"
      ],
      "href": "https://api.spotify.com/v1/artists/7K3zpFXBvPcvzhj7zlGJdO",
      "id": "7K3zpFXBvPcvzhj7zlGJdO",
      "images": [
        {
          "height": 1000,
          "url": "https://i.scdn.co/image/5419a05563a9ba8cb16fe207199c298f621eef85",
          "width": 1000
        },
        {
          "height": 640,
          "url": "https://i.scdn.co/image/d90a0865e8bca5e5084049e8adc3485b3880848e",
          "width": 640
        },
        {
          "height": 200,
          "url": "https://i.scdn.co/image/455a70605e44303c96a4438012598e5ac0260d58",
          "width": 200
        },
        {
          "height": 64,
          "url": "https://i.scdn.co/image/8b202585f9dedf2f7e73dc80cac8ba40e941e7ff",
          "width": 64
        }
      ],
      "name": "Crystal Castles",
      "popularity": 71,
      "type": "artist",
      "uri": "spotify:artist:7K3zpFXBvPcvzhj7zlGJdO"
    },
    {
      "external_urls": {
        "spotify": "https://open.spotify.com/artist/5RADpgYLOuS2ZxDq7ggYYH"
      },
      "followers": {
        "href": null,
        "total": 670285
      },
      "genres": [
        "art pop",
        "escape room",
        "experimental hip hop",
        "hip hop",
        "industrial hip hop"
      ],
      "href": "https://api.spotify.com/v1/artists/5RADpgYLOuS2ZxDq7ggYYH",
      "id": "5RADpgYLOuS2ZxDq7ggYYH",
      "images": [
        {
          "height": 750,
          "url": "https://i.scdn.co/image/b4421731b1edda8b8cc56bd74059305e3d3d3baf",
          "width": 750
        },
        {
          "height": 640,
          "url": "https://i.scdn.co/image/6cf74eae3b622bdd8c8cbcb944a0cbb5abc1f337",
          "width": 640
        },
        {
          "height": 200,
          "url": "https://i.scdn.co/image/44e99eba7959eb2855af390113e7f91ec5fb6280",
          "width": 200
        },
        {
          "height": 64,
          "url": "https://i.scdn.co/image/c273232d77a9aa0d880e99e690021c2ed153f0f3",
          "width": 64
        }
      ],
      "name": "Death Grips",
      "popularity": 64,
      "type": "artist",
      "uri": "spotify:artist:5RADpgYLOuS2ZxDq7ggYYH"
    },
    {
      "external_urls": {
        "spotify": "https://open.spotify.com/artist/2aoFQUeHD1U7pL098lRsDU"
      },
      "followers": {
        "href": null,
        "total": 420453
      },
      "genres": [
        "abstract hip hop",
        "alternative hip hop",
        "hip hop",
        "psychedelic hip hop",
        "rap"
      ],
      "href": "https://api.spotify.com/v1/artists/2aoFQUeHD1U7pL098lRsDU",
      "id": "2aoFQUeHD1U7pL098lRsDU",
      "images": [
        {
          "height": 1000,
          "url": "https://i.scdn.co/image/bc99e9cb1976fcecb929d819b3dfc6f6fabca500",
          "width": 1000
        },
        {
          "height": 640,
          "url": "https://i.scdn.co/image/9d7ed68679a970b86faaea230d16334baba5ed4b",
          "width": 640
        },
        {
          "height": 200,
          "url": "https://i.scdn.co/image/3c14d3a5bf0dbc50595b6d5001633aae9d9e2b5f",
          "width": 200
        },
        {
          "height": 64,
          "url": "https://i.scdn.co/image/ad65acde29d51f7f62a9307815d5b9029be3bb64",
          "width": 64
        }
      ],
      "name": "Madvillain",
      "popularity": 68,
      "type": "artist",
      "uri": "spotify:artist:2aoFQUeHD1U7pL098lRsDU"
    },
    {
      "external_urls": {
        "spotify": "https://open.spotify.com/artist/4wyNyxs74Ux8UIDopNjIai"
      },
      "followers": {
        "href": null,
        "total": 643670
      },
      "genres": ["uk alternative pop"],
      "href": "https://api.spotify.com/v1/artists/4wyNyxs74Ux8UIDopNjIai",
      "id": "4wyNyxs74Ux8UIDopNjIai",
      "images": [
        {
          "height": 640,
          "url": "https://i.scdn.co/image/ab6761610000e5ebe6cfa98e824a988e87ad66a2",
          "width": 640
        },
        {
          "height": 320,
          "url": "https://i.scdn.co/image/ab67616100005174e6cfa98e824a988e87ad66a2",
          "width": 320
        },
        {
          "height": 160,
          "url": "https://i.scdn.co/image/ab6761610000f178e6cfa98e824a988e87ad66a2",
          "width": 160
        }
      ],
      "name": "King Krule",
      "popularity": 63,
      "type": "artist",
      "uri": "spotify:artist:4wyNyxs74Ux8UIDopNjIai"
    },
    {
      "external_urls": {
        "spotify": "https://open.spotify.com/artist/5PbpKlxQE0Ktl5lcNABoFf"
      },
      "followers": {
        "href": null,
        "total": 434578
      },
      "genres": ["alternative rock", "indie pop", "indie rock"],
      "href": "https://api.spotify.com/v1/artists/5PbpKlxQE0Ktl5lcNABoFf",
      "id": "5PbpKlxQE0Ktl5lcNABoFf",
      "images": [
        {
          "height": 640,
          "url": "https://i.scdn.co/image/ab6761610000e5eb592a703f8e58df5e1176f6ff",
          "width": 640
        },
        {
          "height": 320,
          "url": "https://i.scdn.co/image/ab67616100005174592a703f8e58df5e1176f6ff",
          "width": 320
        },
        {
          "height": 160,
          "url": "https://i.scdn.co/image/ab6761610000f178592a703f8e58df5e1176f6ff",
          "width": 160
        }
      ],
      "name": "Car Seat Headrest",
      "popularity": 65,
      "type": "artist",
      "uri": "spotify:artist:5PbpKlxQE0Ktl5lcNABoFf"
    },
    {
      "external_urls": {
        "spotify": "https://open.spotify.com/artist/13ubrt8QOOCPljQ2FL1Kca"
      },
      "followers": {
        "href": null,
        "total": 10629825
      },
      "genres": ["east coast hip hop", "hip hop", "rap", "trap"],
      "href": "https://api.spotify.com/v1/artists/13ubrt8QOOCPljQ2FL1Kca",
      "id": "13ubrt8QOOCPljQ2FL1Kca",
      "images": [
        {
          "height": 640,
          "url": "https://i.scdn.co/image/ab6761610000e5eb6d5529e3962a16bd267bfeb2",
          "width": 640
        },
        {
          "height": 320,
          "url": "https://i.scdn.co/image/ab676161000051746d5529e3962a16bd267bfeb2",
          "width": 320
        },
        {
          "height": 160,
          "url": "https://i.scdn.co/image/ab6761610000f1786d5529e3962a16bd267bfeb2",
          "width": 160
        }
      ],
      "name": "A$AP Rocky",
      "popularity": 87,
      "type": "artist",
      "uri": "spotify:artist:13ubrt8QOOCPljQ2FL1Kca"
    },
    {
      "external_urls": {
        "spotify": "https://open.spotify.com/artist/15iVAtD3s3FsQR4w1v6M0P"
      },
      "followers": {
        "href": null,
        "total": 3144139
      },
      "genres": [
        "chicago bop",
        "chicago drill",
        "chicago rap",
        "drill",
        "hip hop",
        "rap",
        "southern hip hop",
        "trap",
        "underground hip hop"
      ],
      "href": "https://api.spotify.com/v1/artists/15iVAtD3s3FsQR4w1v6M0P",
      "id": "15iVAtD3s3FsQR4w1v6M0P",
      "images": [
        {
          "height": 640,
          "url": "https://i.scdn.co/image/ab6761610000e5eb32b8f233fa03ac70fa97781a",
          "width": 640
        },
        {
          "height": 320,
          "url": "https://i.scdn.co/image/ab6761610000517432b8f233fa03ac70fa97781a",
          "width": 320
        },
        {
          "height": 160,
          "url": "https://i.scdn.co/image/ab6761610000f17832b8f233fa03ac70fa97781a",
          "width": 160
        }
      ],
      "name": "Chief Keef",
      "popularity": 79,
      "type": "artist",
      "uri": "spotify:artist:15iVAtD3s3FsQR4w1v6M0P"
    },
    {
      "external_urls": {
        "spotify": "https://open.spotify.com/artist/6NgYKD0TKGjwtRFqTyyqKF"
      },
      "followers": {
        "href": null,
        "total": 99242
      },
      "genres": ["bedroom pop"],
      "href": "https://api.spotify.com/v1/artists/6NgYKD0TKGjwtRFqTyyqKF",
      "id": "6NgYKD0TKGjwtRFqTyyqKF",
      "images": [
        {
          "height": 640,
          "url": "https://i.scdn.co/image/ab6761610000e5ebacc7832e937049a5c0b0b935",
          "width": 640
        },
        {
          "height": 320,
          "url": "https://i.scdn.co/image/ab67616100005174acc7832e937049a5c0b0b935",
          "width": 320
        },
        {
          "height": 160,
          "url": "https://i.scdn.co/image/ab6761610000f178acc7832e937049a5c0b0b935",
          "width": 160
        }
      ],
      "name": "Monsune",
      "popularity": 55,
      "type": "artist",
      "uri": "spotify:artist:6NgYKD0TKGjwtRFqTyyqKF"
    },
    {
      "external_urls": {
        "spotify": "https://open.spotify.com/artist/3x3jSlhyv5CiCZDZlaTq0M"
      },
      "followers": {
        "href": null,
        "total": 611045
      },
      "genres": ["melodic rap", "pluggnb", "rap", "trap", "vapor trap"],
      "href": "https://api.spotify.com/v1/artists/3x3jSlhyv5CiCZDZlaTq0M",
      "id": "3x3jSlhyv5CiCZDZlaTq0M",
      "images": [
        {
          "height": 640,
          "url": "https://i.scdn.co/image/ab6761610000e5eb057015e505454bc625940dc3",
          "width": 640
        },
        {
          "height": 320,
          "url": "https://i.scdn.co/image/ab67616100005174057015e505454bc625940dc3",
          "width": 320
        },
        {
          "height": 160,
          "url": "https://i.scdn.co/image/ab6761610000f178057015e505454bc625940dc3",
          "width": 160
        }
      ],
      "name": "Pi’erre Bourne",
      "popularity": 72,
      "type": "artist",
      "uri": "spotify:artist:3x3jSlhyv5CiCZDZlaTq0M"
    }
  ],
  "total": 50,
  "limit": 20,
  "offset": 0,
  "href": "https://api.spotify.com/v1/me/top/artists",
  "previous": null,
  "next": "https://api.spotify.com/v1/me/top/artists?limit=20&offset=20"
}
