{
  "items": [
    {
      "external_urls": {
        "spotify": "https://open.spotify.com/artist/2ApaG60P4r0yhBoDCGD8YG"
      },
      "followers": { "href": null, "total": 736087 },
      "genres": [
        "alternative rock",
        "indie pop",
        "indie rock",
        "melancholia",
        "singer-songwriter"
      ],
      "href": "https://api.spotify.com/v1/artists/2ApaG60P4r0yhBoDCGD8YG",
      "id": "2ApaG60P4r0yhBoDCGD8YG",
      "images": [
        {
          "height": 640,
          "url": "https://i.scdn.co/image/ab6761610000e5eb079739b801ab3f105866b76f",
          "width": 640
        },
        {
          "height": 320,
          "url": "https://i.scdn.co/image/ab67616100005174079739b801ab3f105866b76f",
          "width": 320
        },
        {
          "height": 160,
          "url": "https://i.scdn.co/image/ab6761610000f178079739b801ab3f105866b76f",
          "width": 160
        }
      ],
      "name": "Elliott Smith",
      "popularity": 67,
      "type": "artist",
      "uri": "spotify:artist:2ApaG60P4r0yhBoDCGD8YG"
    },
    {
      "external_urls": {
        "spotify": "https://open.spotify.com/artist/1WZarnZpWEv7dDtjAETt4X"
      },
      "followers": { "href": null, "total": 93161 },
      "genres": ["ambient pop", "art pop", "escape room", "hyperpop"],
      "href": "https://api.spotify.com/v1/artists/1WZarnZpWEv7dDtjAETt4X",
      "id": "1WZarnZpWEv7dDtjAETt4X",
      "images": [
        {
          "height": 640,
          "url": "https://i.scdn.co/image/ab6761610000e5ebf3582b14cc6b4f608f9a560f",
          "width": 640
        },
        {
          "height": 320,
          "url": "https://i.scdn.co/image/ab67616100005174f3582b14cc6b4f608f9a560f",
          "width": 320
        },
        {
          "height": 160,
          "url": "https://i.scdn.co/image/ab6761610000f178f3582b14cc6b4f608f9a560f",
          "width": 160
        }
      ],
      "name": "yeule",
      "popularity": 56,
      "type": "artist",
      "uri": "spotify:artist:1WZarnZpWEv7dDtjAETt4X"
    },
    {
      "external_urls": {
        "spotify": "https://open.spotify.com/artist/2uYWxilOVlUdk4oV9DvwqK"
      },
      "followers": { "href": null, "total": 2260906 },
      "genres": ["brooklyn indie"],
      "href": "https://api.spotify.com/v1/artists/2uYWxilOVlUdk4oV9DvwqK",
      "id": "2uYWxilOVlUdk4oV9DvwqK",
      "images": [
        {
          "height": 640,
          "url": "https://i.scdn.co/image/ab6761610000e5ebafb309e27fdb45e093958f9c",
          "width": 640
        },
        {
          "height": 320,
          "url": "https://i.scdn.co/image/ab67616100005174afb309e27fdb45e093958f9c",
          "width": 320
        },
        {
          "height": 160,
          "url": "https://i.scdn.co/image/ab6761610000f178afb309e27fdb45e093958f9c",
          "width": 160
        }
      ],
      "name": "Mitski",
      "popularity": 85,
      "type": "artist",
      "uri": "spotify:artist:2uYWxilOVlUdk4oV9DvwqK"
    },
    {
      "external_urls": {
        "spotify": "https://open.spotify.com/artist/699OTQXzgjhIYAHMy9RyPD"
      },
      "followers": { "href": null, "total": 6040276 },
      "genres": ["atl hip hop", "plugg", "pluggnb", "rap", "trap"],
      "href": "https://api.spotify.com/v1/artists/699OTQXzgjhIYAHMy9RyPD",
      "id": "699OTQXzgjhIYAHMy9RyPD",
      "images": [
        {
          "height": 640,
          "url": "https://i.scdn.co/image/ab6761610000e5eb504ff11d788162fbf8078654",
          "width": 640
        },
        {
          "height": 320,
          "url": "https://i.scdn.co/image/ab67616100005174504ff11d788162fbf8078654",
          "width": 320
        },
        {
          "height": 160,
          "url": "https://i.scdn.co/image/ab6761610000f178504ff11d788162fbf8078654",
          "width": 160
        }
      ],
      "name": "Playboi Carti",
      "popularity": 88,
      "type": "artist",
      "uri": "spotify:artist:699OTQXzgjhIYAHMy9RyPD"
    },
    {
      "external_urls": {
        "spotify": "https://open.spotify.com/artist/4MXUO7sVCaFgFjoTI5ox5c"
      },
      "followers": { "href": null, "total": 1477487 },
      "genres": [
        "baroque pop",
        "chamber pop",
        "freak folk",
        "indie folk",
        "singer-songwriter"
      ],
      "href": "https://api.spotify.com/v1/artists/4MXUO7sVCaFgFjoTI5ox5c",
      "id": "4MXUO7sVCaFgFjoTI5ox5c",
      "images": [
        {
          "height": 640,
          "url": "https://i.scdn.co/image/ab6761610000e5eb6bb28451de514ef1f3c5bf30",
          "width": 640
        },
        {
          "height": 320,
          "url": "https://i.scdn.co/image/ab676161000051746bb28451de514ef1f3c5bf30",
          "width": 320
        },
        {
          "height": 160,
          "url": "https://i.scdn.co/image/ab6761610000f1786bb28451de514ef1f3c5bf30",
          "width": 160
        }
      ],
      "name": "Sufjan Stevens",
      "popularity": 75,
      "type": "artist",
      "uri": "spotify:artist:4MXUO7sVCaFgFjoTI5ox5c"
    },
    {
      "external_urls": {
        "spotify": "https://open.spotify.com/artist/6NgYKD0TKGjwtRFqTyyqKF"
      },
      "followers": { "href": null, "total": 99296 },
      "genres": ["bedroom pop"],
      "href": "https://api.spotify.com/v1/artists/6NgYKD0TKGjwtRFqTyyqKF",
      "id": "6NgYKD0TKGjwtRFqTyyqKF",
      "images": [
        {
          "height": 640,
          "url": "https://i.scdn.co/image/ab6761610000e5ebacc7832e937049a5c0b0b935",
          "width": 640
        },
        {
          "height": 320,
          "url": "https://i.scdn.co/image/ab67616100005174acc7832e937049a5c0b0b935",
          "width": 320
        },
        {
          "height": 160,
          "url": "https://i.scdn.co/image/ab6761610000f178acc7832e937049a5c0b0b935",
          "width": 160
        }
      ],
      "name": "Monsune",
      "popularity": 54,
      "type": "artist",
      "uri": "spotify:artist:6NgYKD0TKGjwtRFqTyyqKF"
    },
    {
      "external_urls": {
        "spotify": "https://open.spotify.com/artist/5PbpKlxQE0Ktl5lcNABoFf"
      },
      "followers": { "href": null, "total": 434872 },
      "genres": ["alternative rock", "indie pop", "indie rock"],
      "href": "https://api.spotify.com/v1/artists/5PbpKlxQE0Ktl5lcNABoFf",
      "id": "5PbpKlxQE0Ktl5lcNABoFf",
      "images": [
        {
          "height": 640,
          "url": "https://i.scdn.co/image/ab6761610000e5eb592a703f8e58df5e1176f6ff",
          "width": 640
        },
        {
          "height": 320,
          "url": "https://i.scdn.co/image/ab67616100005174592a703f8e58df5e1176f6ff",
          "width": 320
        },
        {
          "height": 160,
          "url": "https://i.scdn.co/image/ab6761610000f178592a703f8e58df5e1176f6ff",
          "width": 160
        }
      ],
      "name": "Car Seat Headrest",
      "popularity": 65,
      "type": "artist",
      "uri": "spotify:artist:5PbpKlxQE0Ktl5lcNABoFf"
    },
    {
      "external_urls": {
        "spotify": "https://open.spotify.com/artist/6hG0VsXXlD10l60TqiIHIX"
      },
      "followers": { "href": null, "total": 128513 },
      "genres": [
        "escape room",
        "glitchcore",
        "hyperpop",
        "underground hip hop"
      ],
      "href": "https://api.spotify.com/v1/artists/6hG0VsXXlD10l60TqiIHIX",
      "id": "6hG0VsXXlD10l60TqiIHIX",
      "images": [
        {
          "height": 640,
          "url": "https://i.scdn.co/image/ab6761610000e5eba4caf4073b40cef9206c8012",
          "width": 640
        },
        {
          "height": 320,
          "url": "https://i.scdn.co/image/ab67616100005174a4caf4073b40cef9206c8012",
          "width": 320
        },
        {
          "height": 160,
          "url": "https://i.scdn.co/image/ab6761610000f178a4caf4073b40cef9206c8012",
          "width": 160
        }
      ],
      "name": "Ecco2k",
      "popularity": 64,
      "type": "artist",
      "uri": "spotify:artist:6hG0VsXXlD10l60TqiIHIX"
    },
    {
      "external_urls": {
        "spotify": "https://open.spotify.com/artist/15iVAtD3s3FsQR4w1v6M0P"
      },
      "followers": { "href": null, "total": 3145848 },
      "genres": [
        "chicago bop",
        "chicago drill",
        "chicago rap",
        "drill",
        "hip hop",
        "rap",
        "southern hip hop",
        "trap",
        "underground hip hop"
      ],
      "href": "https://api.spotify.com/v1/artists/15iVAtD3s3FsQR4w1v6M0P",
      "id": "15iVAtD3s3FsQR4w1v6M0P",
      "images": [
        {
          "height": 640,
          "url": "https://i.scdn.co/image/ab6761610000e5eb32b8f233fa03ac70fa97781a",
          "width": 640
        },
        {
          "height": 320,
          "url": "https://i.scdn.co/image/ab6761610000517432b8f233fa03ac70fa97781a",
          "width": 320
        },
        {
          "height": 160,
          "url": "https://i.scdn.co/image/ab6761610000f17832b8f233fa03ac70fa97781a",
          "width": 160
        }
      ],
      "name": "Chief Keef",
      "popularity": 79,
      "type": "artist",
      "uri": "spotify:artist:15iVAtD3s3FsQR4w1v6M0P"
    },
    {
      "external_urls": {
        "spotify": "https://open.spotify.com/artist/3Sz7ZnJQBIHsXLUSo0OQtM"
      },
      "followers": { "href": null, "total": 2420077 },
      "genres": ["edmonton indie", "lo-fi indie"],
      "href": "https://api.spotify.com/v1/artists/3Sz7ZnJQBIHsXLUSo0OQtM",
      "id": "3Sz7ZnJQBIHsXLUSo0OQtM",
      "images": [
        {
          "height": 640,
          "url": "https://i.scdn.co/image/ab6761610000e5ebc7a7b191db13668f1a6d863d",
          "width": 640
        },
        {
          "height": 320,
          "url": "https://i.scdn.co/image/ab67616100005174c7a7b191db13668f1a6d863d",
          "width": 320
        },
        {
          "height": 160,
          "url": "https://i.scdn.co/image/ab6761610000f178c7a7b191db13668f1a6d863d",
          "width": 160
        }
      ],
      "name": "Mac DeMarco",
      "popularity": 82,
      "type": "artist",
      "uri": "spotify:artist:3Sz7ZnJQBIHsXLUSo0OQtM"
    },
    {
      "external_urls": {
        "spotify": "https://open.spotify.com/artist/4wyNyxs74Ux8UIDopNjIai"
      },
      "followers": { "href": null, "total": 643870 },
      "genres": ["uk alternative pop"],
      "href": "https://api.spotify.com/v1/artists/4wyNyxs74Ux8UIDopNjIai",
      "id": "4wyNyxs74Ux8UIDopNjIai",
      "images": [
        {
          "height": 640,
          "url": "https://i.scdn.co/image/ab6761610000e5ebe6cfa98e824a988e87ad66a2",
          "width": 640
        },
        {
          "height": 320,
          "url": "https://i.scdn.co/image/ab67616100005174e6cfa98e824a988e87ad66a2",
          "width": 320
        },
        {
          "height": 160,
          "url": "https://i.scdn.co/image/ab6761610000f178e6cfa98e824a988e87ad66a2",
          "width": 160
        }
      ],
      "name": "King Krule",
      "popularity": 63,
      "type": "artist",
      "uri": "spotify:artist:4wyNyxs74Ux8UIDopNjIai"
    },
    {
      "external_urls": {
        "spotify": "https://open.spotify.com/artist/0Y5tJX1MQlPlqiwlOH1tJY"
      },
      "followers": { "href": null, "total": 19797997 },
      "genres": ["rap", "slap house"],
      "href": "https://api.spotify.com/v1/artists/0Y5tJX1MQlPlqiwlOH1tJY",
      "id": "0Y5tJX1MQlPlqiwlOH1tJY",
      "images": [
        {
          "height": 640,
          "url": "https://i.scdn.co/image/ab6761610000e5ebe707b87e3f65997f6c09bfff",
          "width": 640
        },
        {
          "height": 320,
          "url": "https://i.scdn.co/image/ab67616100005174e707b87e3f65997f6c09bfff",
          "width": 320
        },
        {
          "height": 160,
          "url": "https://i.scdn.co/image/ab6761610000f178e707b87e3f65997f6c09bfff",
          "width": 160
        }
      ],
      "name": "Travis Scott",
      "popularity": 93,
      "type": "artist",
      "uri": "spotify:artist:0Y5tJX1MQlPlqiwlOH1tJY"
    },
    {
      "external_urls": {
        "spotify": "https://open.spotify.com/artist/6XYvaoDGE0VmRt83Jss9Sn"
      },
      "followers": { "href": null, "total": 746969 },
      "genres": [
        "australian indie",
        "australian psych",
        "double drumming",
        "microtonal",
        "neo-psychedelic"
      ],
      "href": "https://api.spotify.com/v1/artists/6XYvaoDGE0VmRt83Jss9Sn",
      "id": "6XYvaoDGE0VmRt83Jss9Sn",
      "images": [
        {
          "height": 640,
          "url": "https://i.scdn.co/image/ab6761610000e5ebae21e90221e814c50033133a",
          "width": 640
        },
        {
          "height": 320,
          "url": "https://i.scdn.co/image/ab67616100005174ae21e90221e814c50033133a",
          "width": 320
        },
        {
          "height": 160,
          "url": "https://i.scdn.co/image/ab6761610000f178ae21e90221e814c50033133a",
          "width": 160
        }
      ],
      "name": "King Gizzard & The Lizard Wizard",
      "popularity": 67,
      "type": "artist",
      "uri": "spotify:artist:6XYvaoDGE0VmRt83Jss9Sn"
    },
    {
      "external_urls": {
        "spotify": "https://open.spotify.com/artist/7K3zpFXBvPcvzhj7zlGJdO"
      },
      "followers": { "href": null, "total": 1134016 },
      "genres": [
        "alternative dance",
        "bitpop",
        "digital hardcore",
        "indietronica",
        "neo-synthpop",
        "new rave",
        "nintendocore"
      ],
      "href": "https://api.spotify.com/v1/artists/7K3zpFXBvPcvzhj7zlGJdO",
      "id": "7K3zpFXBvPcvzhj7zlGJdO",
      "images": [
        {
          "height": 1000,
          "url": "https://i.scdn.co/image/5419a05563a9ba8cb16fe207199c298f621eef85",
          "width": 1000
        },
        {
          "height": 640,
          "url": "https://i.scdn.co/image/d90a0865e8bca5e5084049e8adc3485b3880848e",
          "width": 640
        },
        {
          "height": 200,
          "url": "https://i.scdn.co/image/455a70605e44303c96a4438012598e5ac0260d58",
          "width": 200
        },
        {
          "height": 64,
          "url": "https://i.scdn.co/image/8b202585f9dedf2f7e73dc80cac8ba40e941e7ff",
          "width": 64
        }
      ],
      "name": "Crystal Castles",
      "popularity": 70,
      "type": "artist",
      "uri": "spotify:artist:7K3zpFXBvPcvzhj7zlGJdO"
    },
    {
      "external_urls": {
        "spotify": "https://open.spotify.com/artist/5EiwfaQxmwjCyPLZ7i6kxW"
      },
      "followers": { "href": null, "total": 299776 },
      "genres": ["dance pop", "pink noise", "transpop"],
      "href": "https://api.spotify.com/v1/artists/5EiwfaQxmwjCyPLZ7i6kxW",
      "id": "5EiwfaQxmwjCyPLZ7i6kxW",
      "images": [
        {
          "height": 640,
          "url": "https://i.scdn.co/image/ab6761610000e5eb8b1f7f4f389a674bfe1a9b4d",
          "width": 640
        },
        {
          "height": 320,
          "url": "https://i.scdn.co/image/ab676161000051748b1f7f4f389a674bfe1a9b4d",
          "width": 320
        },
        {
          "height": 160,
          "url": "https://i.scdn.co/image/ab6761610000f1788b1f7f4f389a674bfe1a9b4d",
          "width": 160
        }
      ],
      "name": "Ayesha Erotica",
      "popularity": 62,
      "type": "artist",
      "uri": "spotify:artist:5EiwfaQxmwjCyPLZ7i6kxW"
    },
    {
      "external_urls": {
        "spotify": "https://open.spotify.com/artist/3pc0bOVB5whxmD50W79wwO"
      },
      "followers": { "href": null, "total": 1435210 },
      "genres": ["chill r&b", "pop"],
      "href": "https://api.spotify.com/v1/artists/3pc0bOVB5whxmD50W79wwO",
      "id": "3pc0bOVB5whxmD50W79wwO",
      "images": [
        {
          "height": 640,
          "url": "https://i.scdn.co/image/ab6761610000e5ebd969cf117d0b0d4424bebdc5",
          "width": 640
        },
        {
          "height": 320,
          "url": "https://i.scdn.co/image/ab67616100005174d969cf117d0b0d4424bebdc5",
          "width": 320
        },
        {
          "height": 160,
          "url": "https://i.scdn.co/image/ab6761610000f178d969cf117d0b0d4424bebdc5",
          "width": 160
        }
      ],
      "name": "keshi",
      "popularity": 78,
      "type": "artist",
      "uri": "spotify:artist:3pc0bOVB5whxmD50W79wwO"
    },
    {
      "external_urls": {
        "spotify": "https://open.spotify.com/artist/0epOFNiUfyON9EYx7Tpr6V"
      },
      "followers": { "href": null, "total": 4178247 },
      "genres": [
        "alternative rock",
        "garage rock",
        "modern rock",
        "permanent wave",
        "rock"
      ],
      "href": "https://api.spotify.com/v1/artists/0epOFNiUfyON9EYx7Tpr6V",
      "id": "0epOFNiUfyON9EYx7Tpr6V",
      "images": [
        {
          "height": 640,
          "url": "https://i.scdn.co/image/ab6761610000e5eb64d74f5985cb66b2f7b60e93",
          "width": 640
        },
        {
          "height": 320,
          "url": "https://i.scdn.co/image/ab6761610000517464d74f5985cb66b2f7b60e93",
          "width": 320
        },
        {
          "height": 160,
          "url": "https://i.scdn.co/image/ab6761610000f17864d74f5985cb66b2f7b60e93",
          "width": 160
        }
      ],
      "name": "The Strokes",
      "popularity": 79,
      "type": "artist",
      "uri": "spotify:artist:0epOFNiUfyON9EYx7Tpr6V"
    },
    {
      "external_urls": {
        "spotify": "https://open.spotify.com/artist/1Xyo4u8uXC1ZmMpatF05PJ"
      },
      "followers": { "href": null, "total": 41722824 },
      "genres": ["canadian contemporary r&b", "canadian pop", "pop"],
      "href": "https://api.spotify.com/v1/artists/1Xyo4u8uXC1ZmMpatF05PJ",
      "id": "1Xyo4u8uXC1ZmMpatF05PJ",
      "images": [
        {
          "height": 640,
          "url": "https://i.scdn.co/image/ab6761610000e5eb2f71b65ef483ed75a8b40437",
          "width": 640
        },
        {
          "height": 320,
          "url": "https://i.scdn.co/image/ab676161000051742f71b65ef483ed75a8b40437",
          "width": 320
        },
        {
          "height": 160,
          "url": "https://i.scdn.co/image/ab6761610000f1782f71b65ef483ed75a8b40437",
          "width": 160
        }
      ],
      "name": "The Weeknd",
      "popularity": 99,
      "type": "artist",
      "uri": "spotify:artist:1Xyo4u8uXC1ZmMpatF05PJ"
    },
    {
      "external_urls": {
        "spotify": "https://open.spotify.com/artist/5RADpgYLOuS2ZxDq7ggYYH"
      },
      "followers": { "href": null, "total": 670603 },
      "genres": [
        "art pop",
        "escape room",
        "experimental hip hop",
        "hip hop",
        "industrial hip hop"
      ],
      "href": "https://api.spotify.com/v1/artists/5RADpgYLOuS2ZxDq7ggYYH",
      "id": "5RADpgYLOuS2ZxDq7ggYYH",
      "images": [
        {
          "height": 750,
          "url": "https://i.scdn.co/image/b4421731b1edda8b8cc56bd74059305e3d3d3baf",
          "width": 750
        },
        {
          "height": 640,
          "url": "https://i.scdn.co/image/6cf74eae3b622bdd8c8cbcb944a0cbb5abc1f337",
          "width": 640
        },
        {
          "height": 200,
          "url": "https://i.scdn.co/image/44e99eba7959eb2855af390113e7f91ec5fb6280",
          "width": 200
        },
        {
          "height": 64,
          "url": "https://i.scdn.co/image/c273232d77a9aa0d880e99e690021c2ed153f0f3",
          "width": 64
        }
      ],
      "name": "Death Grips",
      "popularity": 64,
      "type": "artist",
      "uri": "spotify:artist:5RADpgYLOuS2ZxDq7ggYYH"
    },
    {
      "external_urls": {
        "spotify": "https://open.spotify.com/artist/2eIwiMzHBYVTZ2iTYiuacE"
      },
      "followers": { "href": null, "total": 18401 },
      "genres": ["japanese dream pop"],
      "href": "https://api.spotify.com/v1/artists/2eIwiMzHBYVTZ2iTYiuacE",
      "id": "2eIwiMzHBYVTZ2iTYiuacE",
      "images": [
        {
          "height": 640,
          "url": "https://i.scdn.co/image/ab67616d0000b2732420365b61d3bfa992f89435",
          "width": 640
        },
        {
          "height": 300,
          "url": "https://i.scdn.co/image/ab67616d00001e022420365b61d3bfa992f89435",
          "width": 300
        },
        {
          "height": 64,
          "url": "https://i.scdn.co/image/ab67616d000048512420365b61d3bfa992f89435",
          "width": 64
        }
      ],
      "name": "Lily Chou-Chou",
      "popularity": 37,
      "type": "artist",
      "uri": "spotify:artist:2eIwiMzHBYVTZ2iTYiuacE"
    }
  ],
  "total": 35,
  "limit": 20,
  "offset": 0,
  "href": "https://api.spotify.com/v1/me/top/artists?time_range=short_term",
  "previous": null,
  "next": "https://api.spotify.com/v1/me/top/artists?limit=20&offset=20&time_range=short_term"
}
